[

{
    "model": "provider.provider",
     "pk": 1,  "fields": {
         "company": "Huerta el valle",
         "first_name": "Huerta el valle",
         "last_name": "Huerta el valle",
         "address": "Huerta el valle",
         "phone": "666999666",
         "cif": "74125896H",
         "email": "Huerta@elvalle.com",
         "web": "http://Huertaelvalle.com",
         "observations": ""
         }
},
{
    "model": "provider.provider",
    "pk": 2, "fields": {
        "company": "Huerta Manolo",
        "first_name": "Huerta Manolo",
        "last_name": "Huerta Manolo",
        "address": "Huerta Manolo",
        "phone": "666999666",
        "cif": "098765432D",
        "email": "manolo@huerta.com",
        "web": "http://www.huertamanolo.org",
        "observations": ""
        }
},
{
    "model": "provider.provider",
    "pk": 3, "fields": {
        "company": "Pepe Lechugas",
        "first_name": "Pepe",
        "last_name": "Lechugas",
        "address": "Las lechugas de pepe",
        "phone": "666999666",
        "cif": "098765432D",
        "email": "pepe@lechugas.org",
        "web": "http://www.pepelechugas.org",
        "observations": ""
        }
}
]
